Multiple regression
…
** do not pause for -more- message 
set more off

** set current directory
cd "Z:XXXXXX"

** read data
use "labor2016_subsample_v11.dta", clear

#--- R ver. ---#
df <- read.dta("./00_Input/labor2016_subsample_v11.dta")
df %>% as.tibble()  ## `tibble` is better to look than `data.frame`

## # A tibble: 6,057 x 8
##    female hours_meeting agg_industry  agg_occupation dprt_size domestic
##     <int> <fct>         <fct>         <fct>          <fct>     <fct>   
##  1      1 1~5           manufacturing administrative 2-4       domestic
##  2      0 1~5           manufacturing administrative 50~99     domestic
##  3      0 1~5           transport     administrative 5-9       domestic
##  4      0 1~5           IT/Telcom     professional   10~19     domestic
##  5      0 0             IT/Telcom     professional   20~29     domestic
##  6      0 1~5           construction  supervisory    5-9       domestic
##  7      1 0             construction  administrative 2-4       domestic
##  8      0 1~5           manufacturing supervisory    2-4       domestic
##  9      0 5~10          construction  professional   5-9       domestic
## 10      0 1~5           construction  professional   5-9       domestic
## # ... with 6,047 more rows, and 2 more variables: othrs_busy <int>,
## #   job_rank <fct>
…
\(Z_i\):  (control variable) 

2 

 -> \(Y\)

1.2.  []

othrs_busy() 

df <- read.dta("./00_Input/labor2016_subsample_v11.dta")
df %>% as.tibble()

## # A tibble: 6,057 x 8
##    female hours_meeting agg_industry  agg_occupation dprt_size domestic
##     <int> <fct>         <fct>         <fct>          <fct>     <fct>   
##  1      1 1~5           manufacturing administrative 2-4       domestic
##  2      0 1~5           manufacturing administrative 50~99     domestic
##  3      0 1~5           transport     administrative 5-9       domestic
##  4      0 1~5           IT/Telcom     professional   10~19     domestic
##  5      0 0             IT/Telcom     professional   20~29     domestic
##  6      0 1~5           construction  supervisory    5-9       domestic
##  7      1 0             construction  administrative 2-4       domestic
##  8      0 1~5           manufacturing supervisory    2-4       domestic
##  9      0 5~10          construction  professional   5-9       domestic
## 10      0 1~5           construction  professional   5-9       domestic
## # ... with 6,047 more rows, and 2 more variables: othrs_busy <int>,
## #   job_rank <fct>
…
